42 461 283.91 CM001(50) TS003(90) CM011(30) PN013(56) CM071(30) TS443(70) CM051(40) PN353(40) CM741(55) 
44 110 90.97 PN001(25) TS033(55) TS091(30) 
46 0 0 
48 0 0 
50 0 0 
52 120 147.96 CM003(30) CM023(30) CM053(10) CM553(50) 
